{
  "current age": 55,
  "employment status": "not-employed",
  "pir": 10.5,
  "kiwisaver balance": 140000,
  "voluntary contributions": 10,
  "voluntary contributions frequency": "year",
  "risk profile": "medium",
  "saving goal":200000
}